^D:\USERS\GREGER\SOURCE\REPOS\CONSOLEAPPLICATION2\CONSOLEAPPLICATION2.CPP
D:\USERS\GREGER\SOURCE\REPOS\CONSOLEAPPLICATION2\DEBUG\VC142.PDB
D:\USERS\GREGER\SOURCE\REPOS\CONSOLEAPPLICATION2\DEBUG\VC142.IDB
D:\USERS\GREGER\SOURCE\REPOS\CONSOLEAPPLICATION2\DEBUG\CONSOLEAPPLICATION2.OBJ
